captures/i2s_master_tb.vcd
$date
	Mon Aug 16 22:59:59 2021
$end
$version
	Icarus Verilog
$end
$timescale
	1ps
$end
$scope module i2s_master_tb $end
$var wire 1 ! sck $end
$var wire 1 " lck $end
$var wire 1 # din $end
$var wire 1 $ bck $end
$var reg 1 % clk $end
$var reg 16 & smp [15:0] $end
$scope module dut_I $end
$var wire 1 % CLK $end
$var wire 1 ! SCK $end
$var wire 16 ' SMP [15:0] $end
$var wire 1 " LCK $end
$var wire 1 # DIN $end
$var wire 1 $ BCK $end
$var reg 9 ( counter [8:0] $end
$var reg 16 ) shift [15:0] $end
$upscope $end
$upscope $end
$enddefinitions $end
#0
$dumpvars
b0 )
b0 (
b101010110101010 '
b101010110101010 &
0%
0$
0#
0"
0!
$end
#42000
b1 (
1!
1%
#84000
0!
0%
#126000
b10 (
1!
1%
#168000
0!
0%
#210000
b11 (
1!
1%
#252000
0!
0%
#294000
1$
b100 (
1!
1%
#336000
0!
0%
#378000
b101 (
1!
1%
#420000
0!
0%
#462000
b110 (
1!
1%
#504000
0!
0%
#546000
b111 (
1!
1%
#588000
0!
0%
#630000
0$
b1000 (
1!
1%
#672000
0!
0%
#714000
b1001 (
b101010110101010 )
1!
1%
#756000
0!
0%
#798000
b1010 (
1!
1%
#840000
0!
0%
#882000
b1011 (
1!
1%
#924000
0!
0%
#966000
1$
b1100 (
1!
1%
#1008000
0!
0%
#1050000
b1101 (
1!
1%
#1092000
0!
0%
#1134000
b1110 (
1!
1%
#1176000
0!
0%
#1218000
b1111 (
1!
1%
#1260000
0!
0%
#1302000
0$
b10000 (
1!
1%
#1344000
0!
0%
#1386000
1#
b10001 (
b1010101101010100 )
1!
1%
#1428000
0!
0%
#1470000
b10010 (
1!
1%
#1512000
0!
0%
#1554000
b10011 (
1!
1%
#1596000
0!
0%
#1638000
1$
b10100 (
1!
1%
#1680000
0!
0%
#1722000
b10101 (
1!
1%
#1764000
0!
0%
#1806000
b10110 (
1!
1%
#1848000
0!
0%
#1890000
b10111 (
1!
1%
#1932000
0!
0%
#1974000
0$
b11000 (
1!
1%
#2016000
0!
0%
#2058000
0#
b11001 (
b101011010101000 )
1!
1%
#2100000
0!
0%
#2142000
b11010 (
1!
1%
#2184000
0!
0%
#2226000
b11011 (
1!
1%
#2268000
0!
0%
#2310000
1$
b11100 (
1!
1%
#2352000
0!
0%
#2394000
b11101 (
1!
1%
#2436000
0!
0%
#2478000
b11110 (
1!
1%
#2520000
0!
0%
#2562000
b11111 (
1!
1%
#2604000
0!
0%
#2646000
0$
b100000 (
1!
1%
#2688000
0!
0%
#2730000
1#
b100001 (
b1010110101010000 )
1!
1%
#2772000
0!
0%
#2814000
b100010 (
1!
1%
#2856000
0!
0%
#2898000
b100011 (
1!
1%
#2940000
0!
0%
#2982000
1$
b100100 (
1!
1%
#3024000
0!
0%
#3066000
b100101 (
1!
1%
#3108000
0!
0%
#3150000
b100110 (
1!
1%
#3192000
0!
0%
#3234000
b100111 (
1!
1%
#3276000
0!
0%
#3318000
0$
b101000 (
1!
1%
#3360000
0!
0%
#3402000
0#
b101001 (
b101101010100000 )
1!
1%
#3444000
0!
0%
#3486000
b101010 (
1!
1%
#3528000
0!
0%
#3570000
b101011 (
1!
1%
#3612000
0!
0%
#3654000
1$
b101100 (
1!
1%
#3696000
0!
0%
#3738000
b101101 (
1!
1%
#3780000
0!
0%
#3822000
b101110 (
1!
1%
#3864000
0!
0%
#3906000
b101111 (
1!
1%
#3948000
0!
0%
#3990000
0$
b110000 (
1!
1%
#4032000
0!
0%
#4074000
1#
b110001 (
b1011010101000000 )
1!
1%
#4116000
0!
0%
#4158000
b110010 (
1!
1%
#4200000
0!
0%
#4242000
b110011 (
1!
1%
#4284000
0!
0%
#4326000
1$
b110100 (
1!
1%
#4368000
0!
0%
#4410000
b110101 (
1!
1%
#4452000
0!
0%
#4494000
b110110 (
1!
1%
#4536000
0!
0%
#4578000
b110111 (
1!
1%
#4620000
0!
0%
#4662000
0$
b111000 (
1!
1%
#4704000
0!
0%
#4746000
0#
b111001 (
b110101010000000 )
1!
1%
#4788000
0!
0%
#4830000
b111010 (
1!
1%
#4872000
0!
0%
#4914000
b111011 (
1!
1%
#4956000
0!
0%
#4998000
1$
b111100 (
1!
1%
#5040000
0!
0%
#5082000
b111101 (
1!
1%
#5124000
0!
0%
#5166000
b111110 (
1!
1%
#5208000
0!
0%
#5250000
b111111 (
1!
1%
#5292000
0!
0%
#5334000
0$
b1000000 (
1!
1%
#5376000
0!
0%
#5418000
1#
b1000001 (
b1101010100000000 )
1!
1%
#5460000
0!
0%
#5502000
b1000010 (
1!
1%
#5544000
0!
0%
#5586000
b1000011 (
1!
1%
#5628000
0!
0%
#5670000
1$
b1000100 (
1!
1%
#5712000
0!
0%
#5754000
b1000101 (
1!
1%
#5796000
0!
0%
#5838000
b1000110 (
1!
1%
#5880000
0!
0%
#5922000
b1000111 (
1!
1%
#5964000
0!
0%
#6006000
0$
b1001000 (
1!
1%
#6048000
0!
0%
#6090000
b1001001 (
b1010101000000000 )
1!
1%
#6132000
0!
0%
#6174000
b1001010 (
1!
1%
#6216000
0!
0%
#6258000
b1001011 (
1!
1%
#6300000
0!
0%
#6342000
1$
b1001100 (
1!
1%
#6384000
0!
0%
#6426000
b1001101 (
1!
1%
#6468000
0!
0%
#6510000
b1001110 (
1!
1%
#6552000
0!
0%
#6594000
b1001111 (
1!
1%
#6636000
0!
0%
#6678000
0$
b1010000 (
1!
1%
#6720000
0!
0%
#6762000
0#
b1010001 (
b101010000000000 )
1!
1%
#6804000
0!
0%
#6846000
b1010010 (
1!
1%
#6888000
0!
0%
#6930000
b1010011 (
1!
1%
#6972000
0!
0%
#7014000
1$
b1010100 (
1!
1%
#7056000
0!
0%
#7098000
b1010101 (
1!
1%
#7140000
0!
0%
#7182000
b1010110 (
1!
1%
#7224000
0!
0%
#7266000
b1010111 (
1!
1%
#7308000
0!
0%
#7350000
0$
b1011000 (
1!
1%
#7392000
0!
0%
#7434000
1#
b1011001 (
b1010100000000000 )
1!
1%
#7476000
0!
0%
#7518000
b1011010 (
1!
1%
#7560000
0!
0%
#7602000
b1011011 (
1!
1%
#7644000
0!
0%
#7686000
1$
b1011100 (
1!
1%
#7728000
0!
0%
#7770000
b1011101 (
1!
1%
#7812000
0!
0%
#7854000
b1011110 (
1!
1%
#7896000
0!
0%
#7938000
b1011111 (
1!
1%
#7980000
0!
0%
#8022000
0$
b1100000 (
1!
1%
#8064000
0!
0%
#8106000
0#
b1100001 (
b101000000000000 )
1!
1%
#8148000
0!
0%
#8190000
b1100010 (
1!
1%
#8232000
0!
0%
#8274000
b1100011 (
1!
1%
#8316000
0!
0%
#8358000
1$
b1100100 (
1!
1%
#8400000
0!
0%
#8442000
b1100101 (
1!
1%
#8484000
0!
0%
#8526000
b1100110 (
1!
1%
#8568000
0!
0%
#8610000
b1100111 (
1!
1%
#8652000
0!
0%
#8694000
0$
b1101000 (
1!
1%
#8736000
0!
0%
#8778000
1#
b1101001 (
b1010000000000000 )
1!
1%
#8820000
0!
0%
#8862000
b1101010 (
1!
1%
#8904000
0!
0%
#8946000
b1101011 (
1!
1%
#8988000
0!
0%
#9030000
1$
b1101100 (
1!
1%
#9072000
0!
0%
#9114000
b1101101 (
1!
1%
#9156000
0!
0%
#9198000
b1101110 (
1!
1%
#9240000
0!
0%
#9282000
b1101111 (
1!
1%
#9324000
0!
0%
#9366000
0$
b1110000 (
1!
1%
#9408000
0!
0%
#9450000
0#
b1110001 (
b100000000000000 )
1!
1%
#9492000
0!
0%
#9534000
b1110010 (
1!
1%
#9576000
0!
0%
#9618000
b1110011 (
1!
1%
#9660000
0!
0%
#9702000
1$
b1110100 (
1!
1%
#9744000
0!
0%
#9786000
b1110101 (
1!
1%
#9828000
0!
0%
#9870000
b1110110 (
1!
1%
#9912000
0!
0%
#9954000
b1110111 (
1!
1%
#9996000
0!
0%
#10038000
0$
b1111000 (
1!
1%
#10080000
0!
0%
#10122000
1#
b1111001 (
b1000000000000000 )
1!
1%
#10164000
0!
0%
#10206000
b1111010 (
1!
1%
#10248000
0!
0%
#10290000
b1111011 (
1!
1%
#10332000
0!
0%
#10374000
1$
b1111100 (
1!
1%
#10416000
0!
0%
#10458000
b1111101 (
1!
1%
#10500000
0!
0%
#10542000
b1111110 (
1!
1%
#10584000
0!
0%
#10626000
b1111111 (
1!
1%
#10668000
0!
0%
#10710000
0$
b10000000 (
1!
1%
#10752000
0!
0%
#10794000
0#
b10000001 (
b0 )
1!
1%
#10836000
0!
0%
#10878000
b10000010 (
1!
1%
#10920000
0!
0%
#10962000
b10000011 (
1!
1%
#11004000
0!
0%
#11046000
1$
b10000100 (
1!
1%
#11088000
0!
0%
#11130000
b10000101 (
1!
1%
#11172000
0!
0%
#11214000
b10000110 (
1!
1%
#11256000
0!
0%
#11298000
b10000111 (
1!
1%
#11340000
0!
0%
#11382000
0$
b10001000 (
1!
1%
#11424000
0!
0%
#11466000
b10001001 (
1!
1%
#11508000
0!
0%
#11550000
b10001010 (
1!
1%
#11592000
0!
0%
#11634000
b10001011 (
1!
1%
#11676000
0!
0%
#11718000
1$
b10001100 (
1!
1%
#11760000
0!
0%
#11802000
b10001101 (
1!
1%
#11844000
0!
0%
#11886000
b10001110 (
1!
1%
#11928000
0!
0%
#11970000
b10001111 (
1!
1%
#12012000
0!
0%
#12054000
0$
b10010000 (
1!
1%
#12096000
0!
0%
#12138000
b10010001 (
1!
1%
#12180000
0!
0%
#12222000
b10010010 (
1!
1%
#12264000
0!
0%
#12306000
b10010011 (
1!
1%
#12348000
0!
0%
#12390000
1$
b10010100 (
1!
1%
#12432000
0!
0%
#12474000
b10010101 (
1!
1%
#12516000
0!
0%
#12558000
b10010110 (
1!
1%
#12600000
0!
0%
#12642000
b10010111 (
1!
1%
#12684000
0!
0%
#12726000
0$
b10011000 (
1!
1%
#12768000
0!
0%
#12810000
b10011001 (
1!
1%
#12852000
0!
0%
#12894000
b10011010 (
1!
1%
#12936000
0!
0%
#12978000
b10011011 (
1!
1%
#13020000
0!
0%
#13062000
1$
b10011100 (
1!
1%
#13104000
0!
0%
#13146000
b10011101 (
1!
1%
#13188000
0!
0%
#13230000
b10011110 (
1!
1%
#13272000
0!
0%
#13314000
b10011111 (
1!
1%
#13356000
0!
0%
#13398000
0$
b10100000 (
1!
1%
#13440000
0!
0%
#13482000
b10100001 (
1!
1%
#13524000
0!
0%
#13566000
b10100010 (
1!
1%
#13608000
0!
0%
#13650000
b10100011 (
1!
1%
#13692000
0!
0%
#13734000
1$
b10100100 (
1!
1%
#13776000
0!
0%
#13818000
b10100101 (
1!
1%
#13860000
0!
0%
#13902000
b10100110 (
1!
1%
#13944000
0!
0%
#13986000
b10100111 (
1!
1%
#14028000
0!
0%
#14070000
0$
b10101000 (
1!
1%
#14112000
0!
0%
#14154000
b10101001 (
1!
1%
#14196000
0!
0%
#14238000
b10101010 (
1!
1%
#14280000
0!
0%
#14322000
b10101011 (
1!
1%
#14364000
0!
0%
#14406000
1$
b10101100 (
1!
1%
#14448000
0!
0%
#14490000
b10101101 (
1!
1%
#14532000
0!
0%
#14574000
b10101110 (
1!
1%
#14616000
0!
0%
#14658000
b10101111 (
1!
1%
#14700000
0!
0%
#14742000
0$
b10110000 (
1!
1%
#14784000
0!
0%
#14826000
b10110001 (
1!
1%
#14868000
0!
0%
#14910000
b10110010 (
1!
1%
#14952000
0!
0%
#14994000
b10110011 (
1!
1%
#15036000
0!
0%
#15078000
1$
b10110100 (
1!
1%
#15120000
0!
0%
#15162000
b10110101 (
1!
1%
#15204000
0!
0%
#15246000
b10110110 (
1!
1%
#15288000
0!
0%
#15330000
b10110111 (
1!
1%
#15372000
0!
0%
#15414000
0$
b10111000 (
1!
1%
#15456000
0!
0%
#15498000
b10111001 (
1!
1%
#15540000
0!
0%
#15582000
b10111010 (
1!
1%
#15624000
0!
0%
#15666000
b10111011 (
1!
1%
#15708000
0!
0%
#15750000
1$
b10111100 (
1!
1%
#15792000
0!
0%
#15834000
b10111101 (
1!
1%
#15876000
0!
0%
#15918000
b10111110 (
1!
1%
#15960000
0!
0%
#16002000
b10111111 (
1!
1%
#16044000
0!
0%
#16086000
0$
b11000000 (
1!
1%
#16128000
0!
0%
#16170000
b11000001 (
1!
1%
#16212000
0!
0%
#16254000
b11000010 (
1!
1%
#16296000
0!
0%
#16338000
b11000011 (
1!
1%
#16380000
0!
0%
#16422000
1$
b11000100 (
1!
1%
#16464000
0!
0%
#16506000
b11000101 (
1!
1%
#16548000
0!
0%
#16590000
b11000110 (
1!
1%
#16632000
0!
0%
#16674000
b11000111 (
1!
1%
#16716000
0!
0%
#16758000
0$
b11001000 (
1!
1%
#16800000
0!
0%
#16842000
b11001001 (
1!
1%
#16884000
0!
0%
#16926000
b11001010 (
1!
1%
#16968000
0!
0%
#17010000
b11001011 (
1!
1%
#17052000
0!
0%
#17094000
1$
b11001100 (
1!
1%
#17136000
0!
0%
#17178000
b11001101 (
1!
1%
#17220000
0!
0%
#17262000
b11001110 (
1!
1%
#17304000
0!
0%
#17346000
b11001111 (
1!
1%
#17388000
0!
0%
#17430000
0$
b11010000 (
1!
1%
#17472000
0!
0%
#17514000
b11010001 (
1!
1%
#17556000
0!
0%
#17598000
b11010010 (
1!
1%
#17640000
0!
0%
#17682000
b11010011 (
1!
1%
#17724000
0!
0%
#17766000
1$
b11010100 (
1!
1%
#17808000
0!
0%
#17850000
b11010101 (
1!
1%
#17892000
0!
0%
#17934000
b11010110 (
1!
1%
#17976000
0!
0%
#18018000
b11010111 (
1!
1%
#18060000
0!
0%
#18102000
0$
b11011000 (
1!
1%
#18144000
0!
0%
#18186000
b11011001 (
1!
1%
#18228000
0!
0%
#18270000
b11011010 (
1!
1%
#18312000
0!
0%
#18354000
b11011011 (
1!
1%
#18396000
0!
0%
#18438000
1$
b11011100 (
1!
1%
#18480000
0!
0%
#18522000
b11011101 (
1!
1%
#18564000
0!
0%
#18606000
b11011110 (
1!
1%
#18648000
0!
0%
#18690000
b11011111 (
1!
1%
#18732000
0!
0%
#18774000
0$
b11100000 (
1!
1%
#18816000
0!
0%
#18858000
b11100001 (
1!
1%
#18900000
0!
0%
#18942000
b11100010 (
1!
1%
#18984000
0!
0%
#19026000
b11100011 (
1!
1%
#19068000
0!
0%
#19110000
1$
b11100100 (
1!
1%
#19152000
0!
0%
#19194000
b11100101 (
1!
1%
#19236000
0!
0%
#19278000
b11100110 (
1!
1%
#19320000
0!
0%
#19362000
b11100111 (
1!
1%
#19404000
0!
0%
#19446000
0$
b11101000 (
1!
1%
#19488000
0!
0%
#19530000
b11101001 (
1!
1%
#19572000
0!
0%
#19614000
b11101010 (
1!
1%
#19656000
0!
0%
#19698000
b11101011 (
1!
1%
#19740000
0!
0%
#19782000
1$
b11101100 (
1!
1%
#19824000
0!
0%
#19866000
b11101101 (
1!
1%
#19908000
0!
0%
#19950000
b11101110 (
1!
1%
#19992000
0!
0%
#20034000
b11101111 (
1!
1%
#20076000
0!
0%
#20118000
0$
b11110000 (
1!
1%
#20160000
0!
0%
#20202000
b11110001 (
1!
1%
#20244000
0!
0%
#20286000
b11110010 (
1!
1%
#20328000
0!
0%
#20370000
b11110011 (
1!
1%
#20412000
0!
0%
#20454000
1$
b11110100 (
1!
1%
#20496000
0!
0%
#20538000
b11110101 (
1!
1%
#20580000
0!
0%
#20622000
b11110110 (
1!
1%
#20664000
0!
0%
#20706000
b11110111 (
1!
1%
#20748000
0!
0%
#20790000
0$
b11111000 (
1!
1%
#20832000
0!
0%
#20874000
b11111001 (
1!
1%
#20916000
0!
0%
#20958000
b11111010 (
1!
1%
#21000000
0!
0%
#21042000
b11111011 (
1!
1%
#21084000
0!
0%
#21126000
1$
b11111100 (
1!
1%
#21168000
0!
0%
#21210000
b11111101 (
1!
1%
#21252000
0!
0%
#21294000
b11111110 (
1!
1%
#21336000
0!
0%
#21378000
b11111111 (
1!
1%
#21420000
0!
0%
#21462000
0$
1"
b100000000 (
1!
1%
#21504000
0!
0%
#21546000
b100000001 (
1!
1%
#21588000
0!
0%
#21630000
b100000010 (
1!
1%
#21672000
0!
0%
#21714000
b100000011 (
1!
1%
#21756000
0!
0%
#21798000
1$
b100000100 (
1!
1%
#21840000
0!
0%
#21882000
b100000101 (
1!
1%
#21924000
0!
0%
#21966000
b100000110 (
1!
1%
#22008000
0!
0%
#22050000
b100000111 (
1!
1%
#22092000
0!
0%
#22134000
0$
b100001000 (
1!
1%
#22176000
0!
0%
#22218000
b100001001 (
b101010110101010 )
1!
1%
#22260000
0!
0%
#22302000
b100001010 (
1!
1%
#22344000
0!
0%
#22386000
b100001011 (
1!
1%
#22428000
0!
0%
#22470000
1$
b100001100 (
1!
1%
#22512000
0!
0%
#22554000
b100001101 (
1!
1%
#22596000
0!
0%
#22638000
b100001110 (
1!
1%
#22680000
0!
0%
#22722000
b100001111 (
1!
1%
#22764000
0!
0%
#22806000
0$
b100010000 (
1!
1%
#22848000
0!
0%
#22890000
1#
b100010001 (
b1010101101010100 )
1!
1%
#22932000
0!
0%
#22974000
b100010010 (
1!
1%
#23016000
0!
0%
#23058000
b100010011 (
1!
1%
#23100000
0!
0%
#23142000
1$
b100010100 (
1!
1%
#23184000
0!
0%
#23226000
b100010101 (
1!
1%
#23268000
0!
0%
#23310000
b100010110 (
1!
1%
#23352000
0!
0%
#23394000
b100010111 (
1!
1%
#23436000
0!
0%
#23478000
0$
b100011000 (
1!
1%
#23520000
0!
0%
#23562000
0#
b100011001 (
b101011010101000 )
1!
1%
#23604000
0!
0%
#23646000
b100011010 (
1!
1%
#23688000
0!
0%
#23730000
b100011011 (
1!
1%
#23772000
0!
0%
#23814000
1$
b100011100 (
1!
1%
#23856000
0!
0%
#23898000
b100011101 (
1!
1%
#23940000
0!
0%
#23982000
b100011110 (
1!
1%
#24024000
0!
0%
#24066000
b100011111 (
1!
1%
#24108000
0!
0%
#24150000
0$
b100100000 (
1!
1%
#24192000
0!
0%
#24234000
1#
b100100001 (
b1010110101010000 )
1!
1%
#24276000
0!
0%
#24318000
b100100010 (
1!
1%
#24360000
0!
0%
#24402000
b100100011 (
1!
1%
#24444000
0!
0%
#24486000
1$
b100100100 (
1!
1%
#24528000
0!
0%
#24570000
b100100101 (
1!
1%
#24612000
0!
0%
#24654000
b100100110 (
1!
1%
#24696000
0!
0%
#24738000
b100100111 (
1!
1%
#24780000
0!
0%
#24822000
0$
b100101000 (
1!
1%
#24864000
0!
0%
#24906000
0#
b100101001 (
b101101010100000 )
1!
1%
#24948000
0!
0%
#24990000
b100101010 (
1!
1%
#25032000
0!
0%
#25074000
b100101011 (
1!
1%
#25116000
0!
0%
#25158000
1$
b100101100 (
1!
1%
#25200000
0!
0%
#25242000
b100101101 (
1!
1%
#25284000
0!
0%
#25326000
b100101110 (
1!
1%
#25368000
0!
0%
#25410000
b100101111 (
1!
1%
#25452000
0!
0%
#25494000
0$
b100110000 (
1!
1%
#25536000
0!
0%
#25578000
1#
b100110001 (
b1011010101000000 )
1!
1%
#25620000
0!
0%
#25662000
b100110010 (
1!
1%
#25704000
0!
0%
#25746000
b100110011 (
1!
1%
#25788000
0!
0%
#25830000
1$
b100110100 (
1!
1%
#25872000
0!
0%
#25914000
b100110101 (
1!
1%
#25956000
0!
0%
#25998000
b100110110 (
1!
1%
#26040000
0!
0%
#26082000
b100110111 (
1!
1%
#26124000
0!
0%
#26166000
0$
b100111000 (
1!
1%
#26208000
0!
0%
#26250000
0#
b100111001 (
b110101010000000 )
1!
1%
#26292000
0!
0%
#26334000
b100111010 (
1!
1%
#26376000
0!
0%
#26418000
b100111011 (
1!
1%
#26460000
0!
0%
#26502000
1$
b100111100 (
1!
1%
#26544000
0!
0%
#26586000
b100111101 (
1!
1%
#26628000
0!
0%
#26670000
b100111110 (
1!
1%
#26712000
0!
0%
#26754000
b100111111 (
1!
1%
#26796000
0!
0%
#26838000
0$
b101000000 (
1!
1%
#26880000
0!
0%
#26922000
1#
b101000001 (
b1101010100000000 )
1!
1%
#26964000
0!
0%
#27006000
b101000010 (
1!
1%
#27048000
0!
0%
#27090000
b101000011 (
1!
1%
#27132000
0!
0%
#27174000
1$
b101000100 (
1!
1%
#27216000
0!
0%
#27258000
b101000101 (
1!
1%
#27300000
0!
0%
#27342000
b101000110 (
1!
1%
#27384000
0!
0%
#27426000
b101000111 (
1!
1%
#27468000
0!
0%
#27510000
0$
b101001000 (
1!
1%
#27552000
0!
0%
#27594000
b101001001 (
b1010101000000000 )
1!
1%
#27636000
0!
0%
#27678000
b101001010 (
1!
1%
#27720000
0!
0%
#27762000
b101001011 (
1!
1%
#27804000
0!
0%
#27846000
1$
b101001100 (
1!
1%
#27888000
0!
0%
#27930000
b101001101 (
1!
1%
#27972000
0!
0%
#28014000
b101001110 (
1!
1%
#28056000
0!
0%
#28098000
b101001111 (
1!
1%
#28140000
0!
0%
#28182000
0$
b101010000 (
1!
1%
#28224000
0!
0%
#28266000
0#
b101010001 (
b101010000000000 )
1!
1%
#28308000
0!
0%
#28350000
b101010010 (
1!
1%
#28392000
0!
0%
#28434000
b101010011 (
1!
1%
#28476000
0!
0%
#28518000
1$
b101010100 (
1!
1%
#28560000
0!
0%
#28602000
b101010101 (
1!
1%
#28644000
0!
0%
#28686000
b101010110 (
1!
1%
#28728000
0!
0%
#28770000
b101010111 (
1!
1%
#28812000
0!
0%
#28854000
0$
b101011000 (
1!
1%
#28896000
0!
0%
#28938000
1#
b101011001 (
b1010100000000000 )
1!
1%
#28980000
0!
0%
#29022000
b101011010 (
1!
1%
#29064000
0!
0%
#29106000
b101011011 (
1!
1%
#29148000
0!
0%
#29190000
1$
b101011100 (
1!
1%
#29232000
0!
0%
#29274000
b101011101 (
1!
1%
#29316000
0!
0%
#29358000
b101011110 (
1!
1%
#29400000
0!
0%
#29442000
b101011111 (
1!
1%
#29484000
0!
0%
#29526000
0$
b101100000 (
1!
1%
#29568000
0!
0%
#29610000
0#
b101100001 (
b101000000000000 )
1!
1%
#29652000
0!
0%
#29694000
b101100010 (
1!
1%
#29736000
0!
0%
#29778000
b101100011 (
1!
1%
#29820000
0!
0%
#29862000
1$
b101100100 (
1!
1%
#29904000
0!
0%
#29946000
b101100101 (
1!
1%
#29988000
0!
0%
#30030000
b101100110 (
1!
1%
#30072000
0!
0%
#30114000
b101100111 (
1!
1%
#30156000
0!
0%
#30198000
0$
b101101000 (
1!
1%
#30240000
0!
0%
#30282000
1#
b101101001 (
b1010000000000000 )
1!
1%
#30324000
0!
0%
#30366000
b101101010 (
1!
1%
#30408000
0!
0%
#30450000
b101101011 (
1!
1%
#30492000
0!
0%
#30534000
1$
b101101100 (
1!
1%
#30576000
0!
0%
#30618000
b101101101 (
1!
1%
#30660000
0!
0%
#30702000
b101101110 (
1!
1%
#30744000
0!
0%
#30786000
b101101111 (
1!
1%
#30828000
0!
0%
#30870000
0$
b101110000 (
1!
1%
#30912000
0!
0%
#30954000
0#
b101110001 (
b100000000000000 )
1!
1%
#30996000
0!
0%
#31038000
b101110010 (
1!
1%
#31080000
0!
0%
#31122000
b101110011 (
1!
1%
#31164000
0!
0%
#31206000
1$
b101110100 (
1!
1%
#31248000
0!
0%
#31290000
b101110101 (
1!
1%
#31332000
0!
0%
#31374000
b101110110 (
1!
1%
#31416000
0!
0%
#31458000
b101110111 (
1!
1%
#31500000
0!
0%
#31542000
0$
b101111000 (
1!
1%
#31584000
0!
0%
#31626000
1#
b101111001 (
b1000000000000000 )
1!
1%
#31668000
0!
0%
#31710000
b101111010 (
1!
1%
#31752000
0!
0%
#31794000
b101111011 (
1!
1%
#31836000
0!
0%
#31878000
1$
b101111100 (
1!
1%
#31920000
0!
0%
#31962000
b101111101 (
1!
1%
#32004000
0!
0%
#32046000
b101111110 (
1!
1%
#32088000
0!
0%
#32130000
b101111111 (
1!
1%
#32172000
0!
0%
#32214000
0$
b110000000 (
1!
1%
#32256000
0!
0%
#32298000
0#
b110000001 (
b0 )
1!
1%
#32340000
0!
0%
#32382000
b110000010 (
1!
1%
#32424000
0!
0%
#32466000
b110000011 (
1!
1%
#32508000
0!
0%
#32550000
1$
b110000100 (
1!
1%
#32592000
0!
0%
#32634000
b110000101 (
1!
1%
#32676000
0!
0%
#32718000
b110000110 (
1!
1%
#32760000
0!
0%
#32802000
b110000111 (
1!
1%
#32844000
0!
0%
#32886000
0$
b110001000 (
1!
1%
#32928000
0!
0%
#32970000
b110001001 (
1!
1%
#33012000
0!
0%
#33054000
b110001010 (
1!
1%
#33096000
0!
0%
#33138000
b110001011 (
1!
1%
#33180000
0!
0%
#33222000
1$
b110001100 (
1!
1%
#33264000
0!
0%
#33306000
b110001101 (
1!
1%
#33348000
0!
0%
#33390000
b110001110 (
1!
1%
#33432000
0!
0%
#33474000
b110001111 (
1!
1%
#33516000
0!
0%
#33558000
0$
b110010000 (
1!
1%
#33600000
0!
0%
#33642000
b110010001 (
1!
1%
#33684000
0!
0%
#33726000
b110010010 (
1!
1%
#33768000
0!
0%
#33810000
b110010011 (
1!
1%
#33852000
0!
0%
#33894000
1$
b110010100 (
1!
1%
#33936000
0!
0%
#33978000
b110010101 (
1!
1%
#34020000
0!
0%
#34062000
b110010110 (
1!
1%
#34104000
0!
0%
#34146000
b110010111 (
1!
1%
#34188000
0!
0%
#34230000
0$
b110011000 (
1!
1%
#34272000
0!
0%
#34314000
b110011001 (
1!
1%
#34356000
0!
0%
#34398000
b110011010 (
1!
1%
#34440000
0!
0%
#34482000
b110011011 (
1!
1%
#34524000
0!
0%
#34566000
1$
b110011100 (
1!
1%
#34608000
0!
0%
#34650000
b110011101 (
1!
1%
#34692000
0!
0%
#34734000
b110011110 (
1!
1%
#34776000
0!
0%
#34818000
b110011111 (
1!
1%
#34860000
0!
0%
#34902000
0$
b110100000 (
1!
1%
#34944000
0!
0%
#34986000
b110100001 (
1!
1%
#35028000
0!
0%
#35070000
b110100010 (
1!
1%
#35112000
0!
0%
#35154000
b110100011 (
1!
1%
#35196000
0!
0%
#35238000
1$
b110100100 (
1!
1%
#35280000
0!
0%
#35322000
b110100101 (
1!
1%
#35364000
0!
0%
#35406000
b110100110 (
1!
1%
#35448000
0!
0%
#35490000
b110100111 (
1!
1%
#35532000
0!
0%
#35574000
0$
b110101000 (
1!
1%
#35616000
0!
0%
#35658000
b110101001 (
1!
1%
#35700000
0!
0%
#35742000
b110101010 (
1!
1%
#35784000
0!
0%
#35826000
b110101011 (
1!
1%
#35868000
0!
0%
#35910000
1$
b110101100 (
1!
1%
#35952000
0!
0%
#35994000
b110101101 (
1!
1%
#36036000
0!
0%
#36078000
b110101110 (
1!
1%
#36120000
0!
0%
#36162000
b110101111 (
1!
1%
#36204000
0!
0%
#36246000
0$
b110110000 (
1!
1%
#36288000
0!
0%
#36330000
b110110001 (
1!
1%
#36372000
0!
0%
#36414000
b110110010 (
1!
1%
#36456000
0!
0%
#36498000
b110110011 (
1!
1%
#36540000
0!
0%
#36582000
1$
b110110100 (
1!
1%
#36624000
0!
0%
#36666000
b110110101 (
1!
1%
#36708000
0!
0%
#36750000
b110110110 (
1!
1%
#36792000
0!
0%
#36834000
b110110111 (
1!
1%
#36876000
0!
0%
#36918000
0$
b110111000 (
1!
1%
#36960000
0!
0%
#37002000
b110111001 (
1!
1%
#37044000
0!
0%
#37086000
b110111010 (
1!
1%
#37128000
0!
0%
#37170000
b110111011 (
1!
1%
#37212000
0!
0%
#37254000
1$
b110111100 (
1!
1%
#37296000
0!
0%
#37338000
b110111101 (
1!
1%
#37380000
0!
0%
#37422000
b110111110 (
1!
1%
#37464000
0!
0%
#37506000
b110111111 (
1!
1%
#37548000
0!
0%
#37590000
0$
b111000000 (
1!
1%
#37632000
0!
0%
#37674000
b111000001 (
1!
1%
#37716000
0!
0%
#37758000
b111000010 (
1!
1%
#37800000
0!
0%
#37842000
b111000011 (
1!
1%
#37884000
0!
0%
#37926000
1$
b111000100 (
1!
1%
#37968000
0!
0%
#38010000
b111000101 (
1!
1%
#38052000
0!
0%
#38094000
b111000110 (
1!
1%
#38136000
0!
0%
#38178000
b111000111 (
1!
1%
#38220000
0!
0%
#38262000
0$
b111001000 (
1!
1%
#38304000
0!
0%
#38346000
b111001001 (
1!
1%
#38388000
0!
0%
#38430000
b111001010 (
1!
1%
#38472000
0!
0%
#38514000
b111001011 (
1!
1%
#38556000
0!
0%
#38598000
1$
b111001100 (
1!
1%
#38640000
0!
0%
#38682000
b111001101 (
1!
1%
#38724000
0!
0%
#38766000
b111001110 (
1!
1%
#38808000
0!
0%
#38850000
b111001111 (
1!
1%
#38892000
0!
0%
#38934000
0$
b111010000 (
1!
1%
#38976000
0!
0%
#39018000
b111010001 (
1!
1%
#39060000
0!
0%
#39102000
b111010010 (
1!
1%
#39144000
0!
0%
#39186000
b111010011 (
1!
1%
#39228000
0!
0%
#39270000
1$
b111010100 (
1!
1%
#39312000
0!
0%
#39354000
b111010101 (
1!
1%
#39396000
0!
0%
#39438000
b111010110 (
1!
1%
#39480000
0!
0%
#39522000
b111010111 (
1!
1%
#39564000
0!
0%
#39606000
0$
b111011000 (
1!
1%
#39648000
0!
0%
#39690000
b111011001 (
1!
1%
#39732000
0!
0%
#39774000
b111011010 (
1!
1%
#39816000
0!
0%
#39858000
b111011011 (
1!
1%
#39900000
0!
0%
#39942000
1$
b111011100 (
1!
1%
#39984000
0!
0%
